<?xml version="1.0" encoding="UTF-8" standalone="no"?>
<svg
   xml:space="preserve"
   width="888"
   height="888"
   viewBox="0 0 888 888"
   version="1.1"
   id="svg422"
   sodipodi:docname="QR_pyCFS.svg"
   inkscape:version="1.4 (1:1.4+202410161351+e7c3feb100)"
   xmlns:inkscape="http://www.inkscape.org/namespaces/inkscape"
   xmlns:sodipodi="http://sodipodi.sourceforge.net/DTD/sodipodi-0.dtd"
   xmlns:xlink="http://www.w3.org/1999/xlink"
   xmlns="http://www.w3.org/2000/svg"
   xmlns:svg="http://www.w3.org/2000/svg"><defs
     id="defs422"><g
       id="id-a5164921-f558-424c-ba5d-a0d70b0d23fc">
      <symbol
   overflow="visible"
   id="id-d8fde7be-1ec1-4380-a64a-629b179100fb">
        <path
   style="stroke:none;stroke-width:0"
   d=""
   id="id-5269137f-85c2-4887-9680-85b7c9a4077b" />
      </symbol>
      <symbol
   overflow="visible"
   id="id-b2366c41-5fd3-4eda-a44f-dffed7702814">
        <path
   style="stroke:none;stroke-width:0"
   d="m 1.71875,-3.75 v -0.65625 l -1.4375,0.109375 v 0.3125 c 0.703125,0 0.78125,0.0625 0.78125,0.5 v 4.65625 C 1.0625,1.625 0.953125,1.625 0.28125,1.625 V 1.9375 C 0.625,1.921875 1.140625,1.90625 1.390625,1.90625 c 0.28125,0 0.78125,0.015625 1.125,0.03125 V 1.625 C 1.859375,1.625 1.75,1.625 1.75,1.171875 V -0.59375 c 0.046875,0.171875 0.46875,0.703125 1.21875,0.703125 1.1875,0 2.21875,-0.984375 2.21875,-2.265625 0,-1.265625 -0.953125,-2.25 -2.078125,-2.25 -0.78125,0 -1.203125,0.4375 -1.390625,0.65625 z M 1.75,-1.140625 v -2.21875 C 2.03125,-3.875 2.515625,-4.15625 3.03125,-4.15625 c 0.734375,0 1.328125,0.875 1.328125,2 0,1.203125 -0.6875,2.046875 -1.421875,2.046875 -0.40625,0 -0.78125,-0.203125 -1.046875,-0.609375 C 1.75,-0.921875 1.75,-0.9375 1.75,-1.140625 Z m 0,0"
   id="id-3a0403b8-6f3b-4b3d-ab5b-ba6c2b97486f" />
      </symbol>
      <symbol
   overflow="visible"
   id="id-51c5d360-79e0-4ba5-9afd-7e9956d68f1e">
        <path
   style="stroke:none;stroke-width:0"
   d="m 4.140625,-3.34375 c 0.25,-0.640625 0.765625,-0.640625 0.921875,-0.640625 v -0.3125 c -0.234375,0.015625 -0.515625,0.03125 -0.75,0.03125 -0.171875,0 -0.640625,-0.015625 -0.859375,-0.03125 v 0.3125 c 0.3125,0 0.46875,0.171875 0.46875,0.421875 0,0.109375 -0.015625,0.125 -0.0625,0.25 L 2.84375,-0.875 1.75,-3.546875 C 1.703125,-3.65625 1.6875,-3.6875 1.6875,-3.734375 c 0,-0.25 0.359375,-0.25 0.5625,-0.25 v -0.3125 c -0.265625,0.015625 -0.921875,0.03125 -1.09375,0.03125 -0.265625,0 -0.671875,-0.015625 -0.96875,-0.03125 v 0.3125 c 0.484375,0 0.671875,0 0.8125,0.34375 L 2.5,0 C 2.4375,0.125 2.296875,0.453125 2.25,0.59375 2.03125,1.140625 1.75,1.828125 1.109375,1.828125 c -0.046875,0 -0.28125,0 -0.46875,-0.1875 0.3125,-0.03125 0.390625,-0.25 0.390625,-0.421875 0,-0.25 -0.1875,-0.40625 -0.421875,-0.40625 -0.203125,0 -0.421875,0.125 -0.421875,0.421875 0,0.453125 0.421875,0.8125 0.921875,0.8125 0.625,0 1.03125,-0.578125 1.265625,-1.140625 z m 0,0"
   id="id-648cde04-c1cb-479e-b4aa-f0c45ee123a8" />
      </symbol>
      <symbol
   overflow="visible"
   id="id-39cbedfc-98e0-4919-9cfd-78ba456632ca">
        <path
   style="stroke:none;stroke-width:0"
   d="m 0.5625,-3.40625 c 0,2.0625 1.609375,3.625 3.46875,3.625 1.625,0 2.59375,-1.390625 2.59375,-2.546875 C 6.625,-2.421875 6.625,-2.5 6.5,-2.5 6.390625,-2.5 6.390625,-2.4375 6.375,-2.328125 6.296875,-0.90625 5.234375,-0.09375 4.140625,-0.09375 c -0.609375,0 -2.5625,-0.328125 -2.5625,-3.3125 0,-2.96875 1.953125,-3.3125 2.5625,-3.3125 1.078125,0 1.96875,0.90625 2.171875,2.359375 C 6.328125,-4.21875 6.328125,-4.1875 6.46875,-4.1875 6.625,-4.1875 6.625,-4.21875 6.625,-4.421875 V -6.78125 c 0,-0.171875 0,-0.25 -0.109375,-0.25 -0.03125,0 -0.078125,0 -0.15625,0.125 l -0.5,0.734375 C 5.5,-6.53125 4.984375,-7.03125 4.03125,-7.03125 c -1.875,0 -3.46875,1.59375 -3.46875,3.625 z m 0,0"
   id="id-7d5b25f7-64d1-4578-b0a8-42f7546bb681" />
      </symbol>
      <symbol
   overflow="visible"
   id="id-3887d8b3-09c4-4159-9901-6fc8f684de05">
        <path
   style="stroke:none;stroke-width:0"
   d="m 5.796875,-6.78125 h -5.46875 v 0.3125 H 0.5625 c 0.765625,0 0.796875,0.109375 0.796875,0.46875 v 5.21875 c 0,0.359375 -0.03125,0.46875 -0.796875,0.46875 H 0.328125 V 0 c 0.34375,-0.03125 1.125,-0.03125 1.515625,-0.03125 0.40625,0 1.3125,0 1.671875,0.03125 V -0.3125 H 3.1875 C 2.25,-0.3125 2.25,-0.4375 2.25,-0.78125 v -2.453125 h 0.84375 c 0.96875,0 1.0625,0.3125 1.0625,1.15625 h 0.25 V -4.71875 h -0.25 c 0,0.84375 -0.09375,1.171875 -1.0625,1.171875 H 2.25 v -2.53125 c 0,-0.328125 0.015625,-0.390625 0.484375,-0.390625 h 1.1875 c 1.5,0 1.75,0.5625 1.90625,1.9375 h 0.25 z m 0,0"
   id="id-9d24ffac-55bd-4484-a6ed-1e245a7b93e7" />
      </symbol>
      <symbol
   overflow="visible"
   id="id-e2b30488-cdf3-4299-94a1-57afbf818007">
        <path
   style="stroke:none;stroke-width:0"
   d="m 3.484375,-3.875 -1.28125,-0.296875 c -0.625,-0.15625 -1,-0.6875 -1,-1.265625 0,-0.703125 0.53125,-1.3125 1.3125,-1.3125 1.65625,0 1.875,1.640625 1.9375,2.078125 0.015625,0.0625 0.015625,0.125 0.125,0.125 0.125,0 0.125,-0.046875 0.125,-0.234375 v -2 c 0,-0.171875 0,-0.25 -0.109375,-0.25 -0.0625,0 -0.078125,0.015625 -0.140625,0.140625 l -0.359375,0.5625 C 3.796875,-6.625 3.390625,-7.03125 2.5,-7.03125 c -1.109375,0 -1.9375,0.875 -1.9375,1.9375 0,0.828125 0.53125,1.5625 1.296875,1.828125 0.109375,0.03125 0.625,0.15625 1.328125,0.328125 0.265625,0.0625 0.5625,0.140625 0.84375,0.5 0.203125,0.265625 0.3125,0.59375 0.3125,0.921875 0,0.703125 -0.5,1.421875 -1.34375,1.421875 -0.28125,0 -1.046875,-0.046875 -1.578125,-0.53125 C 0.84375,-1.171875 0.8125,-1.796875 0.8125,-2.15625 0.796875,-2.265625 0.71875,-2.265625 0.6875,-2.265625 c -0.125,0 -0.125,0.078125 -0.125,0.25 v 2 c 0,0.171875 0,0.234375 0.109375,0.234375 0.0625,0 0.078125,-0.015625 0.140625,-0.125 0,-0.015625 0.03125,-0.046875 0.359375,-0.578125 0.3125,0.34375 0.953125,0.703125 1.84375,0.703125 1.15625,0 1.953125,-0.96875 1.953125,-2.078125 0,-0.984375 -0.65625,-1.8125 -1.484375,-2.015625 z m 0,0"
   id="id-62936e9f-5176-4fb7-a290-b1b2700022b4" />
      </symbol>
    </g><linearGradient
       y2="137.27299"
       x2="112.03144"
       y1="192.35176"
       x1="150.96111"
       gradientTransform="matrix(0.56753035,0,0,0.57300949,443.5117,344.31452)"
       gradientUnits="userSpaceOnUse"
       id="linearGradient1475"
       xlink:href="#linearGradient4671"
       inkscape:collect="always" /><linearGradient
       id="linearGradient4671"><stop
         id="stop4673"
         offset="0"
         style="stop-color:#ffd43b;stop-opacity:1;" /><stop
         id="stop4675"
         offset="1"
         style="stop-color:#ffe873;stop-opacity:1" /></linearGradient><linearGradient
       y2="114.39767"
       x2="135.66525"
       y1="20.603781"
       x1="26.648937"
       gradientTransform="matrix(0.56753035,0,0,0.57300949,443.5117,344.31452)"
       gradientUnits="userSpaceOnUse"
       id="linearGradient1478"
       xlink:href="#linearGradient4689"
       inkscape:collect="always" /><linearGradient
       id="linearGradient4689"><stop
         id="stop4691"
         offset="0"
         style="stop-color:#5a9fd4;stop-opacity:1;" /><stop
         id="stop4693"
         offset="1"
         style="stop-color:#306998;stop-opacity:1;" /></linearGradient><linearGradient
       gradientTransform="matrix(2.3007336,0,0,2.3007336,384.78655,499.6948)"
       gradientUnits="userSpaceOnUse"
       y2="-40.790768"
       x2="84.659096"
       y1="-41.300648"
       x1="-16.598711"
       id="linearGradient1180"
       xlink:href="#linearGradient1186"
       inkscape:collect="always" /><linearGradient
       id="linearGradient1186"><stop
         style="stop-color:#ffbb5c;stop-opacity:1"
         offset="0"
         id="stop1184" /><stop
         style="stop-color:#fe6848;stop-opacity:1;"
         offset="1"
         id="stop1182" /></linearGradient><clipPath
       clipPathUnits="userSpaceOnUse"
       id="clipPath51"><rect
         style="display:none;fill:#000000;fill-opacity:1;stroke:#6c8ebf;stroke-width:0.1;stroke-linecap:round;stroke-linejoin:bevel;stroke-dasharray:none"
         id="rect51-7"
         width="9.7801332"
         height="10.299849"
         x="-17.008928"
         y="198.50838"
         d="m -17.008928,198.50838 h 9.7801329 v 10.29985 h -9.7801329 z" /><path
         id="lpe_path-effect51"
         style="display:inline;fill:#000000;fill-opacity:1;stroke:#6c8ebf;stroke-width:0.1;stroke-linecap:round;stroke-linejoin:bevel;stroke-dasharray:none"
         class="powerclip"
         d="m -34.832666,188.73093 h 32.0113998 v 32.35054 H -34.832666 Z m 17.823738,9.77745 v 10.29985 h 9.7801329 v -10.29985 z" /></clipPath><inkscape:path-effect
       effect="powerclip"
       message=""
       id="path-effect51"
       is_visible="true"
       lpeversion="1"
       inverse="true"
       flatten="false"
       hide_clip="false" /><clipPath
       clipPathUnits="userSpaceOnUse"
       id="clipPath49"><g
         id="g50-3"
         style="display:none"><rect
           style="display:inline;fill:#000000;fill-opacity:1;stroke:#6c8ebf;stroke-width:0.1;stroke-linecap:round;stroke-linejoin:bevel;stroke-dasharray:none"
           id="rect49-6"
           width="7.5089679"
           height="10.271332"
           x="-37.723186"
           y="196.19479"
           d="m -37.723186,196.19479 h 7.508967 v 10.27134 h -7.508967 z" /><rect
           style="display:inline;fill:#000000;fill-opacity:1;stroke:#6c8ebf;stroke-width:0.103041;stroke-linecap:round;stroke-linejoin:bevel;stroke-dasharray:none"
           id="rect50-4"
           width="10.13316"
           height="8.2977104"
           x="-25.200928"
           y="192.8217"
           d="m -25.200928,192.8217 h 10.13316 v 8.29771 h -10.13316 z" /></g><path
         id="lpe_path-effect50"
         class="powerclip"
         d="m -42.493566,181.08147 h 31.96668 v 32.18046 h -31.96668 z m 4.77038,15.11332 v 10.27134 h 7.508967 v -10.27134 z m 12.522258,-3.37309 v 8.29771 h 10.13316 v -8.29771 z" /></clipPath><inkscape:path-effect
       effect="powerclip"
       message=""
       id="path-effect50"
       is_visible="true"
       lpeversion="1"
       inverse="true"
       flatten="false"
       hide_clip="false" /><linearGradient
       inkscape:collect="always"
       xlink:href="#linearGradient4671"
       id="linearGradient1"
       gradientUnits="userSpaceOnUse"
       gradientTransform="matrix(0.15015907,0,0,0.15160876,-41.495146,182.95776)"
       x1="150.96111"
       y1="192.35176"
       x2="112.03144"
       y2="137.27299" /><linearGradient
       inkscape:collect="always"
       xlink:href="#linearGradient4689"
       id="linearGradient2"
       gradientUnits="userSpaceOnUse"
       gradientTransform="matrix(0.15015907,0,0,0.15160876,-41.495146,182.95776)"
       x1="26.648937"
       y1="20.603781"
       x2="135.66525"
       y2="114.39767" /></defs><sodipodi:namedview
     id="namedview422"
     pagecolor="#ffffff"
     bordercolor="#666666"
     borderopacity="1.0"
     inkscape:showpageshadow="2"
     inkscape:pageopacity="0.0"
     inkscape:pagecheckerboard="0"
     inkscape:deskcolor="#d1d1d1"
     inkscape:zoom="0.2294482"
     inkscape:cx="-479.41104"
     inkscape:cy="1059.0626"
     inkscape:window-width="1920"
     inkscape:window-height="995"
     inkscape:window-x="0"
     inkscape:window-y="0"
     inkscape:window-maximized="1"
     inkscape:current-layer="svg422" /><g
     fill="#000000"
     id="g422">
<g
   transform="translate(240,48) scale(4.12)"
   id="g1"><rect
     width="6"
     height="6"
     id="rect1" /></g>
<g
   transform="translate(264,48) scale(4.12)"
   id="g2"><rect
     width="6"
     height="6"
     id="rect2" /></g>
<g
   transform="translate(288,48) scale(4.12)"
   id="g3"><rect
     width="6"
     height="6"
     id="rect3" /></g>
<g
   transform="translate(360,48) scale(4.12)"
   id="g4"><rect
     width="6"
     height="6"
     id="rect4" /></g>
<g
   transform="translate(408,48) scale(4.12)"
   id="g5"><rect
     width="6"
     height="6"
     id="rect5" /></g>
<g
   transform="translate(456,48) scale(4.12)"
   id="g6"><rect
     width="6"
     height="6"
     id="rect6" /></g>
<g
   transform="translate(480,48) scale(4.12)"
   id="g7"><rect
     width="6"
     height="6"
     id="rect7" /></g>
<g
   transform="translate(528,48) scale(4.12)"
   id="g8"><rect
     width="6"
     height="6"
     id="rect8" /></g>
<g
   transform="translate(552,48) scale(4.12)"
   id="g9"><rect
     width="6"
     height="6"
     id="rect9" /></g>
<g
   transform="translate(600,48) scale(4.12)"
   id="g10"><rect
     width="6"
     height="6"
     id="rect10" /></g>
<g
   transform="translate(624,48) scale(4.12)"
   id="g11"><rect
     width="6"
     height="6"
     id="rect11" /></g>
<g
   transform="translate(240,72) scale(4.12)"
   id="g12"><rect
     width="6"
     height="6"
     id="rect12" /></g>
<g
   transform="translate(288,72) scale(4.12)"
   id="g13"><rect
     width="6"
     height="6"
     id="rect13" /></g>
<g
   transform="translate(312,72) scale(4.12)"
   id="g14"><rect
     width="6"
     height="6"
     id="rect14" /></g>
<g
   transform="translate(336,72) scale(4.12)"
   id="g15"><rect
     width="6"
     height="6"
     id="rect15" /></g>
<g
   transform="translate(480,72) scale(4.12)"
   id="g16"><rect
     width="6"
     height="6"
     id="rect16" /></g>
<g
   transform="translate(624,72) scale(4.12)"
   id="g17"><rect
     width="6"
     height="6"
     id="rect17" /></g>
<g
   transform="translate(240,96) scale(4.12)"
   id="g18"><rect
     width="6"
     height="6"
     id="rect18" /></g>
<g
   transform="translate(288,96) scale(4.12)"
   id="g19"><rect
     width="6"
     height="6"
     id="rect19" /></g>
<g
   transform="translate(360,96) scale(4.12)"
   id="g20"><rect
     width="6"
     height="6"
     id="rect20" /></g>
<g
   transform="translate(408,96) scale(4.12)"
   id="g21"><rect
     width="6"
     height="6"
     id="rect21" /></g>
<g
   transform="translate(432,96) scale(4.12)"
   id="g22"><rect
     width="6"
     height="6"
     id="rect22" /></g>
<g
   transform="translate(552,96) scale(4.12)"
   id="g23"><rect
     width="6"
     height="6"
     id="rect23" /></g>
<g
   transform="translate(600,96) scale(4.12)"
   id="g24"><rect
     width="6"
     height="6"
     id="rect24" /></g>
<g
   transform="translate(624,96) scale(4.12)"
   id="g25"><rect
     width="6"
     height="6"
     id="rect25" /></g>
<g
   transform="translate(264,120) scale(4.12)"
   id="g26"><rect
     width="6"
     height="6"
     id="rect26" /></g>
<g
   transform="translate(288,120) scale(4.12)"
   id="g27"><rect
     width="6"
     height="6"
     id="rect27" /></g>
<g
   transform="translate(336,120) scale(4.12)"
   id="g28"><rect
     width="6"
     height="6"
     id="rect28" /></g>
<g
   transform="translate(360,120) scale(4.12)"
   id="g29"><rect
     width="6"
     height="6"
     id="rect29" /></g>
<g
   transform="translate(384,120) scale(4.12)"
   id="g30"><rect
     width="6"
     height="6"
     id="rect30" /></g>
<g
   transform="translate(480,120) scale(4.12)"
   id="g31"><rect
     width="6"
     height="6"
     id="rect31" /></g>
<g
   transform="translate(576,120) scale(4.12)"
   id="g32"><rect
     width="6"
     height="6"
     id="rect32" /></g>
<g
   transform="translate(600,120) scale(4.12)"
   id="g33"><rect
     width="6"
     height="6"
     id="rect33" /></g>
<g
   transform="translate(624,120) scale(4.12)"
   id="g34"><rect
     width="6"
     height="6"
     id="rect34" /></g>
<g
   transform="translate(288,144) scale(4.12)"
   id="g35"><rect
     width="6"
     height="6"
     id="rect35" /></g>
<g
   transform="translate(336,144) scale(4.12)"
   id="g36"><rect
     width="6"
     height="6"
     id="rect36" /></g>
<g
   transform="translate(384,144) scale(4.12)"
   id="g37"><rect
     width="6"
     height="6"
     id="rect37" /></g>
<g
   transform="translate(456,144) scale(4.12)"
   id="g38"><rect
     width="6"
     height="6"
     id="rect38" /></g>
<g
   transform="translate(480,144) scale(4.12)"
   id="g39"><rect
     width="6"
     height="6"
     id="rect39" /></g>
<g
   transform="translate(552,144) scale(4.12)"
   id="g40"><rect
     width="6"
     height="6"
     id="rect40" /></g>
<g
   transform="translate(240,168) scale(4.12)"
   id="g41"><rect
     width="6"
     height="6"
     id="rect41" /></g>
<g
   transform="translate(312,168) scale(4.12)"
   id="g42"><rect
     width="6"
     height="6"
     id="rect42" /></g>
<g
   transform="translate(360,168) scale(4.12)"
   id="g43"><rect
     width="6"
     height="6"
     id="rect43" /></g>
<g
   transform="translate(384,168) scale(4.12)"
   id="g44"><rect
     width="6"
     height="6"
     id="rect44" /></g>
<g
   transform="translate(456,168) scale(4.12)"
   id="g45"><rect
     width="6"
     height="6"
     id="rect45" /></g>
<g
   transform="translate(480,168) scale(4.12)"
   id="g46"><rect
     width="6"
     height="6"
     id="rect46" /></g>
<g
   transform="translate(528,168) scale(4.12)"
   id="g47"><rect
     width="6"
     height="6"
     id="rect47" /></g>
<g
   transform="translate(552,168) scale(4.12)"
   id="g48"><rect
     width="6"
     height="6"
     id="rect48" /></g>
<g
   transform="translate(576,168) scale(4.12)"
   id="g49"><rect
     width="6"
     height="6"
     id="rect49" /></g>
<g
   transform="translate(600,168) scale(4.12)"
   id="g50"><rect
     width="6"
     height="6"
     id="rect50" /></g>
<g
   transform="translate(624,168) scale(4.12)"
   id="g51"><rect
     width="6"
     height="6"
     id="rect51" /></g>
<g
   transform="translate(240,192) scale(4.12)"
   id="g52"><rect
     width="6"
     height="6"
     id="rect52" /></g>
<g
   transform="translate(288,192) scale(4.12)"
   id="g53"><rect
     width="6"
     height="6"
     id="rect53" /></g>
<g
   transform="translate(336,192) scale(4.12)"
   id="g54"><rect
     width="6"
     height="6"
     id="rect54" /></g>
<g
   transform="translate(384,192) scale(4.12)"
   id="g55"><rect
     width="6"
     height="6"
     id="rect55" /></g>
<g
   transform="translate(432,192) scale(4.12)"
   id="g56"><rect
     width="6"
     height="6"
     id="rect56" /></g>
<g
   transform="translate(480,192) scale(4.12)"
   id="g57"><rect
     width="6"
     height="6"
     id="rect57" /></g>
<g
   transform="translate(528,192) scale(4.12)"
   id="g58"><rect
     width="6"
     height="6"
     id="rect58" /></g>
<g
   transform="translate(576,192) scale(4.12)"
   id="g59"><rect
     width="6"
     height="6"
     id="rect59" /></g>
<g
   transform="translate(624,192) scale(4.12)"
   id="g60"><rect
     width="6"
     height="6"
     id="rect60" /></g>
<g
   transform="translate(240,216) scale(4.12)"
   id="g61"><rect
     width="6"
     height="6"
     id="rect61" /></g>
<g
   transform="translate(264,216) scale(4.12)"
   id="g62"><rect
     width="6"
     height="6"
     id="rect62" /></g>
<g
   transform="translate(288,216) scale(4.12)"
   id="g63"><rect
     width="6"
     height="6"
     id="rect63" /></g>
<g
   transform="translate(336,216) scale(4.12)"
   id="g64"><rect
     width="6"
     height="6"
     id="rect64" /></g>
<g
   transform="translate(408,216) scale(4.12)"
   id="g65"><rect
     width="6"
     height="6"
     id="rect65" /></g>
<g
   transform="translate(480,216) scale(4.12)"
   id="g66"><rect
     width="6"
     height="6"
     id="rect66" /></g>
<g
   transform="translate(552,216) scale(4.12)"
   id="g67"><rect
     width="6"
     height="6"
     id="rect67" /></g>
<g
   transform="translate(600,216) scale(4.12)"
   id="g68"><rect
     width="6"
     height="6"
     id="rect68" /></g>
<g
   transform="translate(96,240) scale(4.12)"
   id="g69"><rect
     width="6"
     height="6"
     id="rect69" /></g>
<g
   transform="translate(120,240) scale(4.12)"
   id="g70"><rect
     width="6"
     height="6"
     id="rect70" /></g>
<g
   transform="translate(144,240) scale(4.12)"
   id="g71"><rect
     width="6"
     height="6"
     id="rect71" /></g>
<g
   transform="translate(192,240) scale(4.12)"
   id="g72"><rect
     width="6"
     height="6"
     id="rect72" /></g>
<g
   transform="translate(240,240) scale(4.12)"
   id="g73"><rect
     width="6"
     height="6"
     id="rect73" /></g>
<g
   transform="translate(288,240) scale(4.12)"
   id="g74"><rect
     width="6"
     height="6"
     id="rect74" /></g>
<g
   transform="translate(312,240) scale(4.12)"
   id="g75"><rect
     width="6"
     height="6"
     id="rect75" /></g>
<g
   transform="translate(360,240) scale(4.12)"
   id="g76"><rect
     width="6"
     height="6"
     id="rect76" /></g>
<g
   transform="translate(384,240) scale(4.12)"
   id="g77"><rect
     width="6"
     height="6"
     id="rect77" /></g>
<g
   transform="translate(456,240) scale(4.12)"
   id="g78"><rect
     width="6"
     height="6"
     id="rect78" /></g>
<g
   transform="translate(480,240) scale(4.12)"
   id="g79"><rect
     width="6"
     height="6"
     id="rect79" /></g>
<g
   transform="translate(504,240) scale(4.12)"
   id="g80"><rect
     width="6"
     height="6"
     id="rect80" /></g>
<g
   transform="translate(600,240) scale(4.12)"
   id="g81"><rect
     width="6"
     height="6"
     id="rect81" /></g>
<g
   transform="translate(648,240) scale(4.12)"
   id="g82"><rect
     width="6"
     height="6"
     id="rect82" /></g>
<g
   transform="translate(672,240) scale(4.12)"
   id="g83"><rect
     width="6"
     height="6"
     id="rect83" /></g>
<g
   transform="translate(696,240) scale(4.12)"
   id="g84"><rect
     width="6"
     height="6"
     id="rect84" /></g>
<g
   transform="translate(768,240) scale(4.12)"
   id="g85"><rect
     width="6"
     height="6"
     id="rect85" /></g>
<g
   transform="translate(792,240) scale(4.12)"
   id="g86"><rect
     width="6"
     height="6"
     id="rect86" /></g>
<g
   transform="translate(816,240) scale(4.12)"
   id="g87"><rect
     width="6"
     height="6"
     id="rect87" /></g>
<g
   transform="translate(48,264) scale(4.12)"
   id="g88"><rect
     width="6"
     height="6"
     id="rect88" /></g>
<g
   transform="translate(168,264) scale(4.12)"
   id="g89"><rect
     width="6"
     height="6"
     id="rect89" /></g>
<g
   transform="translate(288,264) scale(4.12)"
   id="g90"><rect
     width="6"
     height="6"
     id="rect90" /></g>
<g
   transform="translate(312,264) scale(4.12)"
   id="g91"><rect
     width="6"
     height="6"
     id="rect91" /></g>
<g
   transform="translate(336,264) scale(4.12)"
   id="g92"><rect
     width="6"
     height="6"
     id="rect92" /></g>
<g
   transform="translate(360,264) scale(4.12)"
   id="g93"><rect
     width="6"
     height="6"
     id="rect93" /></g>
<g
   transform="translate(408,264) scale(4.12)"
   id="g94"><rect
     width="6"
     height="6"
     id="rect94" /></g>
<g
   transform="translate(432,264) scale(4.12)"
   id="g95"><rect
     width="6"
     height="6"
     id="rect95" /></g>
<g
   transform="translate(456,264) scale(4.12)"
   id="g96"><rect
     width="6"
     height="6"
     id="rect96" /></g>
<g
   transform="translate(480,264) scale(4.12)"
   id="g97"><rect
     width="6"
     height="6"
     id="rect97" /></g>
<g
   transform="translate(528,264) scale(4.12)"
   id="g98"><rect
     width="6"
     height="6"
     id="rect98" /></g>
<g
   transform="translate(552,264) scale(4.12)"
   id="g99"><rect
     width="6"
     height="6"
     id="rect99" /></g>
<g
   transform="translate(600,264) scale(4.12)"
   id="g100"><rect
     width="6"
     height="6"
     id="rect100" /></g>
<g
   transform="translate(648,264) scale(4.12)"
   id="g101"><rect
     width="6"
     height="6"
     id="rect101" /></g>
<g
   transform="translate(672,264) scale(4.12)"
   id="g102"><rect
     width="6"
     height="6"
     id="rect102" /></g>
<g
   transform="translate(768,264) scale(4.12)"
   id="g103"><rect
     width="6"
     height="6"
     id="rect103" /></g>
<g
   transform="translate(792,264) scale(4.12)"
   id="g104"><rect
     width="6"
     height="6"
     id="rect104" /></g>
<g
   transform="translate(816,264) scale(4.12)"
   id="g105"><rect
     width="6"
     height="6"
     id="rect105" /></g>
<g
   transform="translate(48,288) scale(4.12)"
   id="g106"><rect
     width="6"
     height="6"
     id="rect106" /></g>
<g
   transform="translate(96,288) scale(4.12)"
   id="g107"><rect
     width="6"
     height="6"
     id="rect107" /></g>
<g
   transform="translate(144,288) scale(4.12)"
   id="g108"><rect
     width="6"
     height="6"
     id="rect108" /></g>
<g
   transform="translate(192,288) scale(4.12)"
   id="g109"><rect
     width="6"
     height="6"
     id="rect109" /></g>
<g
   transform="translate(456,288) scale(4.12)"
   id="g110"><rect
     width="6"
     height="6"
     id="rect110" /></g>
<g
   transform="translate(552,288) scale(4.12)"
   id="g111"><rect
     width="6"
     height="6"
     id="rect111" /></g>
<g
   transform="translate(672,288) scale(4.12)"
   id="g112"><rect
     width="6"
     height="6"
     id="rect112" /></g>
<g
   transform="translate(696,288) scale(4.12)"
   id="g113"><rect
     width="6"
     height="6"
     id="rect113" /></g>
<g
   transform="translate(768,288) scale(4.12)"
   id="g114"><rect
     width="6"
     height="6"
     id="rect114" /></g>
<g
   transform="translate(792,288) scale(4.12)"
   id="g115"><rect
     width="6"
     height="6"
     id="rect115" /></g>
<g
   transform="translate(48,312) scale(4.12)"
   id="g116"><rect
     width="6"
     height="6"
     id="rect116" /></g>
<g
   transform="translate(96,312) scale(4.12)"
   id="g117"><rect
     width="6"
     height="6"
     id="rect117" /></g>
<g
   transform="translate(144,312) scale(4.12)"
   id="g118"><rect
     width="6"
     height="6"
     id="rect118" /></g>
<g
   transform="translate(168,312) scale(4.12)"
   id="g119"><rect
     width="6"
     height="6"
     id="rect119" /></g>
<g
   transform="translate(216,312) scale(4.12)"
   id="g120"><rect
     width="6"
     height="6"
     id="rect120" /></g>
<g
   transform="translate(240,312) scale(4.12)"
   id="g121"><rect
     width="6"
     height="6"
     id="rect121" /></g>
<g
   transform="translate(264,312) scale(4.12)"
   id="g122"><rect
     width="6"
     height="6"
     id="rect122" /></g>
<g
   transform="translate(360,312) scale(4.12)"
   id="g123"><rect
     width="6"
     height="6"
     id="rect123" /></g>
<g
   transform="translate(432,312) scale(4.12)"
   id="g124"><rect
     width="6"
     height="6"
     id="rect124" /></g>
<g
   transform="translate(456,312) scale(4.12)"
   id="g125"><rect
     width="6"
     height="6"
     id="rect125" /></g>
<g
   transform="translate(480,312) scale(4.12)"
   id="g126"><rect
     width="6"
     height="6"
     id="rect126" /></g>
<g
   transform="translate(504,312) scale(4.12)"
   id="g127"><rect
     width="6"
     height="6"
     id="rect127" /></g>
<g
   transform="translate(552,312) scale(4.12)"
   id="g128"><rect
     width="6"
     height="6"
     id="rect128" /></g>
<g
   transform="translate(576,312) scale(4.12)"
   id="g129"><rect
     width="6"
     height="6"
     id="rect129" /></g>
<g
   transform="translate(600,312) scale(4.12)"
   id="g130"><rect
     width="6"
     height="6"
     id="rect130" /></g>
<g
   transform="translate(624,312) scale(4.12)"
   id="g131"><rect
     width="6"
     height="6"
     id="rect131" /></g>
<g
   transform="translate(648,312) scale(4.12)"
   id="g132"><rect
     width="6"
     height="6"
     id="rect132" /></g>
<g
   transform="translate(744,312) scale(4.12)"
   id="g133"><rect
     width="6"
     height="6"
     id="rect133" /></g>
<g
   transform="translate(768,312) scale(4.12)"
   id="g134"><rect
     width="6"
     height="6"
     id="rect134" /></g>
<g
   transform="translate(72,336) scale(4.12)"
   id="g135"><rect
     width="6"
     height="6"
     id="rect135" /></g>
<g
   transform="translate(120,336) scale(4.12)"
   id="g136"><rect
     width="6"
     height="6"
     id="rect136" /></g>
<g
   transform="translate(144,336) scale(4.12)"
   id="g137"><rect
     width="6"
     height="6"
     id="rect137" /></g>
<g
   transform="translate(192,336) scale(4.12)"
   id="g138"><rect
     width="6"
     height="6"
     id="rect138" /></g>
<g
   transform="translate(288,336) scale(4.12)"
   id="g139"><rect
     width="6"
     height="6"
     id="rect139" /></g>
<g
   transform="translate(552,336) scale(4.12)"
   id="g140"><rect
     width="6"
     height="6"
     id="rect140" /></g>
<g
   transform="translate(744,336) scale(4.12)"
   id="g141"><rect
     width="6"
     height="6"
     id="rect141" /></g>
<g
   transform="translate(96,360) scale(4.12)"
   id="g142"><rect
     width="6"
     height="6"
     id="rect142" /></g>
<g
   transform="translate(120,360) scale(4.12)"
   id="g143"><rect
     width="6"
     height="6"
     id="rect143" /></g>
<g
   transform="translate(144,360) scale(4.12)"
   id="g144"><rect
     width="6"
     height="6"
     id="rect144" /></g>
<g
   transform="translate(216,360) scale(4.12)"
   id="g145"><rect
     width="6"
     height="6"
     id="rect145" /></g>
<g
   transform="translate(264,360) scale(4.12)"
   id="g146"><rect
     width="6"
     height="6"
     id="rect146" /></g>
<g
   transform="translate(576,360) scale(4.12)"
   id="g147"><rect
     width="6"
     height="6"
     id="rect147" /></g>
<g
   transform="translate(600,360) scale(4.12)"
   id="g148"><rect
     width="6"
     height="6"
     id="rect148" /></g>
<g
   transform="translate(672,360) scale(4.12)"
   id="g149"><rect
     width="6"
     height="6"
     id="rect149" /></g>
<g
   transform="translate(816,360) scale(4.12)"
   id="g150"><rect
     width="6"
     height="6"
     id="rect150" /></g>
<g
   transform="translate(72,384) scale(4.12)"
   id="g151"><rect
     width="6"
     height="6"
     id="rect151" /></g>
<g
   transform="translate(144,384) scale(4.12)"
   id="g152"><rect
     width="6"
     height="6"
     id="rect152" /></g>
<g
   transform="translate(192,384) scale(4.12)"
   id="g153"><rect
     width="6"
     height="6"
     id="rect153" /></g>
<g
   transform="translate(216,384) scale(4.12)"
   id="g154"><rect
     width="6"
     height="6"
     id="rect154" /></g>
<g
   transform="translate(240,384) scale(4.12)"
   id="g155"><rect
     width="6"
     height="6"
     id="rect155" /></g>
<g
   transform="translate(576,384) scale(4.12)"
   id="g156"><rect
     width="6"
     height="6"
     id="rect156" /></g>
<g
   transform="translate(672,384) scale(4.12)"
   id="g157"><rect
     width="6"
     height="6"
     id="rect157" /></g>
<g
   transform="translate(696,384) scale(4.12)"
   id="g158"><rect
     width="6"
     height="6"
     id="rect158" /></g>
<g
   transform="translate(720,384) scale(4.12)"
   id="g159"><rect
     width="6"
     height="6"
     id="rect159" /></g>
<g
   transform="translate(744,384) scale(4.12)"
   id="g160"><rect
     width="6"
     height="6"
     id="rect160" /></g>
<g
   transform="translate(768,384) scale(4.12)"
   id="g161"><rect
     width="6"
     height="6"
     id="rect161" /></g>
<g
   transform="translate(792,384) scale(4.12)"
   id="g162"><rect
     width="6"
     height="6"
     id="rect162" /></g>
<g
   transform="translate(48,408) scale(4.12)"
   id="g163"><rect
     width="6"
     height="6"
     id="rect163" /></g>
<g
   transform="translate(72,408) scale(4.12)"
   id="g164"><rect
     width="6"
     height="6"
     id="rect164" /></g>
<g
   transform="translate(96,408) scale(4.12)"
   id="g165"><rect
     width="6"
     height="6"
     id="rect165" /></g>
<g
   transform="translate(144,408) scale(4.12)"
   id="g166"><rect
     width="6"
     height="6"
     id="rect166" /></g>
<g
   transform="translate(240,408) scale(4.12)"
   id="g167"><rect
     width="6"
     height="6"
     id="rect167" /></g>
<g
   transform="translate(264,408) scale(4.12)"
   id="g168"><rect
     width="6"
     height="6"
     id="rect168" /></g>
<g
   transform="translate(288,408) scale(4.12)"
   id="g169"><rect
     width="6"
     height="6"
     id="rect169" /></g>
<g
   transform="translate(312,408) scale(4.12)"
   id="g170"><rect
     width="6"
     height="6"
     id="rect170" /></g>
<g
   transform="translate(552,408) scale(4.12)"
   id="g171"><rect
     width="6"
     height="6"
     id="rect171" /></g>
<g
   transform="translate(576,408) scale(4.12)"
   id="g172"><rect
     width="6"
     height="6"
     id="rect172" /></g>
<g
   transform="translate(600,408) scale(4.12)"
   id="g173"><rect
     width="6"
     height="6"
     id="rect173" /></g>
<g
   transform="translate(672,408) scale(4.12)"
   id="g174"><rect
     width="6"
     height="6"
     id="rect174" /></g>
<g
   transform="translate(744,408) scale(4.12)"
   id="g175"><rect
     width="6"
     height="6"
     id="rect175" /></g>
<g
   transform="translate(768,408) scale(4.12)"
   id="g176"><rect
     width="6"
     height="6"
     id="rect176" /></g>
<g
   transform="translate(792,408) scale(4.12)"
   id="g177"><rect
     width="6"
     height="6"
     id="rect177" /></g>
<g
   transform="translate(816,408) scale(4.12)"
   id="g178"><rect
     width="6"
     height="6"
     id="rect178" /></g>
<g
   transform="translate(48,432) scale(4.12)"
   id="g179"><rect
     width="6"
     height="6"
     id="rect179" /></g>
<g
   transform="translate(96,432) scale(4.12)"
   id="g180"><rect
     width="6"
     height="6"
     id="rect180" /></g>
<g
   transform="translate(144,432) scale(4.12)"
   id="g181"><rect
     width="6"
     height="6"
     id="rect181" /></g>
<g
   transform="translate(192,432) scale(4.12)"
   id="g182"><rect
     width="6"
     height="6"
     id="rect182" /></g>
<g
   transform="translate(216,432) scale(4.12)"
   id="g183"><rect
     width="6"
     height="6"
     id="rect183" /></g>
<g
   transform="translate(600,432) scale(4.12)"
   id="g184"><rect
     width="6"
     height="6"
     id="rect184" /></g>
<g
   transform="translate(648,432) scale(4.12)"
   id="g185"><rect
     width="6"
     height="6"
     id="rect185" /></g>
<g
   transform="translate(696,432) scale(4.12)"
   id="g186"><rect
     width="6"
     height="6"
     id="rect186" /></g>
<g
   transform="translate(720,432) scale(4.12)"
   id="g187"><rect
     width="6"
     height="6"
     id="rect187" /></g>
<g
   transform="translate(768,432) scale(4.12)"
   id="g188"><rect
     width="6"
     height="6"
     id="rect188" /></g>
<g
   transform="translate(792,432) scale(4.12)"
   id="g189"><rect
     width="6"
     height="6"
     id="rect189" /></g>
<g
   transform="translate(816,432) scale(4.12)"
   id="g190"><rect
     width="6"
     height="6"
     id="rect190" /></g>
<g
   transform="translate(96,456) scale(4.12)"
   id="g191"><rect
     width="6"
     height="6"
     id="rect191" /></g>
<g
   transform="translate(120,456) scale(4.12)"
   id="g192"><rect
     width="6"
     height="6"
     id="rect192" /></g>
<g
   transform="translate(144,456) scale(4.12)"
   id="g193"><rect
     width="6"
     height="6"
     id="rect193" /></g>
<g
   transform="translate(168,456) scale(4.12)"
   id="g194"><rect
     width="6"
     height="6"
     id="rect194" /></g>
<g
   transform="translate(264,456) scale(4.12)"
   id="g195"><rect
     width="6"
     height="6"
     id="rect195" /></g>
<g
   transform="translate(552,456) scale(4.12)"
   id="g196"><rect
     width="6"
     height="6"
     id="rect196" /></g>
<g
   transform="translate(600,456) scale(4.12)"
   id="g197"><rect
     width="6"
     height="6"
     id="rect197" /></g>
<g
   transform="translate(624,456) scale(4.12)"
   id="g198"><rect
     width="6"
     height="6"
     id="rect198" /></g>
<g
   transform="translate(672,456) scale(4.12)"
   id="g199"><rect
     width="6"
     height="6"
     id="rect199" /></g>
<g
   transform="translate(792,456) scale(4.12)"
   id="g200"><rect
     width="6"
     height="6"
     id="rect200" /></g>
<g
   transform="translate(816,456) scale(4.12)"
   id="g201"><rect
     width="6"
     height="6"
     id="rect201" /></g>
<g
   transform="translate(48,480) scale(4.12)"
   id="g202"><rect
     width="6"
     height="6"
     id="rect202" /></g>
<g
   transform="translate(96,480) scale(4.12)"
   id="g203"><rect
     width="6"
     height="6"
     id="rect203" /></g>
<g
   transform="translate(120,480) scale(4.12)"
   id="g204"><rect
     width="6"
     height="6"
     id="rect204" /></g>
<g
   transform="translate(168,480) scale(4.12)"
   id="g205"><rect
     width="6"
     height="6"
     id="rect205" /></g>
<g
   transform="translate(192,480) scale(4.12)"
   id="g206"><rect
     width="6"
     height="6"
     id="rect206" /></g>
<g
   transform="translate(240,480) scale(4.12)"
   id="g207"><rect
     width="6"
     height="6"
     id="rect207" /></g>
<g
   transform="translate(312,480) scale(4.12)"
   id="g208"><rect
     width="6"
     height="6"
     id="rect208" /></g>
<g
   transform="translate(576,480) scale(4.12)"
   id="g209"><rect
     width="6"
     height="6"
     id="rect209" /></g>
<g
   transform="translate(720,480) scale(4.12)"
   id="g210"><rect
     width="6"
     height="6"
     id="rect210" /></g>
<g
   transform="translate(768,480) scale(4.12)"
   id="g211"><rect
     width="6"
     height="6"
     id="rect211" /></g>
<g
   transform="translate(792,480) scale(4.12)"
   id="g212"><rect
     width="6"
     height="6"
     id="rect212" /></g>
<g
   transform="translate(72,504) scale(4.12)"
   id="g213"><rect
     width="6"
     height="6"
     id="rect213" /></g>
<g
   transform="translate(96,504) scale(4.12)"
   id="g214"><rect
     width="6"
     height="6"
     id="rect214" /></g>
<g
   transform="translate(168,504) scale(4.12)"
   id="g215"><rect
     width="6"
     height="6"
     id="rect215" /></g>
<g
   transform="translate(240,504) scale(4.12)"
   id="g216"><rect
     width="6"
     height="6"
     id="rect216" /></g>
<g
   transform="translate(312,504) scale(4.12)"
   id="g217"><rect
     width="6"
     height="6"
     id="rect217" /></g>
<g
   transform="translate(552,504) scale(4.12)"
   id="g218"><rect
     width="6"
     height="6"
     id="rect218" /></g>
<g
   transform="translate(576,504) scale(4.12)"
   id="g219"><rect
     width="6"
     height="6"
     id="rect219" /></g>
<g
   transform="translate(600,504) scale(4.12)"
   id="g220"><rect
     width="6"
     height="6"
     id="rect220" /></g>
<g
   transform="translate(624,504) scale(4.12)"
   id="g221"><rect
     width="6"
     height="6"
     id="rect221" /></g>
<g
   transform="translate(648,504) scale(4.12)"
   id="g222"><rect
     width="6"
     height="6"
     id="rect222" /></g>
<g
   transform="translate(672,504) scale(4.12)"
   id="g223"><rect
     width="6"
     height="6"
     id="rect223" /></g>
<g
   transform="translate(720,504) scale(4.12)"
   id="g224"><rect
     width="6"
     height="6"
     id="rect224" /></g>
<g
   transform="translate(744,504) scale(4.12)"
   id="g225"><rect
     width="6"
     height="6"
     id="rect225" /></g>
<g
   transform="translate(768,504) scale(4.12)"
   id="g226"><rect
     width="6"
     height="6"
     id="rect226" /></g>
<g
   transform="translate(144,528) scale(4.12)"
   id="g227"><rect
     width="6"
     height="6"
     id="rect227" /></g>
<g
   transform="translate(168,528) scale(4.12)"
   id="g228"><rect
     width="6"
     height="6"
     id="rect228" /></g>
<g
   transform="translate(192,528) scale(4.12)"
   id="g229"><rect
     width="6"
     height="6"
     id="rect229" /></g>
<g
   transform="translate(264,528) scale(4.12)"
   id="g230"><rect
     width="6"
     height="6"
     id="rect230" /></g>
<g
   transform="translate(624,528) scale(4.12)"
   id="g231"><rect
     width="6"
     height="6"
     id="rect231" /></g>
<g
   transform="translate(696,528) scale(4.12)"
   id="g232"><rect
     width="6"
     height="6"
     id="rect232" /></g>
<g
   transform="translate(720,528) scale(4.12)"
   id="g233"><rect
     width="6"
     height="6"
     id="rect233" /></g>
<g
   transform="translate(744,528) scale(4.12)"
   id="g234"><rect
     width="6"
     height="6"
     id="rect234" /></g>
<g
   transform="translate(48,552) scale(4.12)"
   id="g235"><rect
     width="6"
     height="6"
     id="rect235" /></g>
<g
   transform="translate(96,552) scale(4.12)"
   id="g236"><rect
     width="6"
     height="6"
     id="rect236" /></g>
<g
   transform="translate(240,552) scale(4.12)"
   id="g237"><rect
     width="6"
     height="6"
     id="rect237" /></g>
<g
   transform="translate(288,552) scale(4.12)"
   id="g238"><rect
     width="6"
     height="6"
     id="rect238" /></g>
<g
   transform="translate(360,552) scale(4.12)"
   id="g239"><rect
     width="6"
     height="6"
     id="rect239" /></g>
<g
   transform="translate(384,552) scale(4.12)"
   id="g240"><rect
     width="6"
     height="6"
     id="rect240" /></g>
<g
   transform="translate(432,552) scale(4.12)"
   id="g241"><rect
     width="6"
     height="6"
     id="rect241" /></g>
<g
   transform="translate(456,552) scale(4.12)"
   id="g242"><rect
     width="6"
     height="6"
     id="rect242" /></g>
<g
   transform="translate(480,552) scale(4.12)"
   id="g243"><rect
     width="6"
     height="6"
     id="rect243" /></g>
<g
   transform="translate(504,552) scale(4.12)"
   id="g244"><rect
     width="6"
     height="6"
     id="rect244" /></g>
<g
   transform="translate(528,552) scale(4.12)"
   id="g245"><rect
     width="6"
     height="6"
     id="rect245" /></g>
<g
   transform="translate(624,552) scale(4.12)"
   id="g246"><rect
     width="6"
     height="6"
     id="rect246" /></g>
<g
   transform="translate(672,552) scale(4.12)"
   id="g247"><rect
     width="6"
     height="6"
     id="rect247" /></g>
<g
   transform="translate(792,552) scale(4.12)"
   id="g248"><rect
     width="6"
     height="6"
     id="rect248" /></g>
<g
   transform="translate(816,552) scale(4.12)"
   id="g249"><rect
     width="6"
     height="6"
     id="rect249" /></g>
<g
   transform="translate(48,576) scale(4.12)"
   id="g250"><rect
     width="6"
     height="6"
     id="rect250" /></g>
<g
   transform="translate(96,576) scale(4.12)"
   id="g251"><rect
     width="6"
     height="6"
     id="rect251" /></g>
<g
   transform="translate(168,576) scale(4.12)"
   id="g252"><rect
     width="6"
     height="6"
     id="rect252" /></g>
<g
   transform="translate(192,576) scale(4.12)"
   id="g253"><rect
     width="6"
     height="6"
     id="rect253" /></g>
<g
   transform="translate(264,576) scale(4.12)"
   id="g254"><rect
     width="6"
     height="6"
     id="rect254" /></g>
<g
   transform="translate(360,576) scale(4.12)"
   id="g255"><rect
     width="6"
     height="6"
     id="rect255" /></g>
<g
   transform="translate(528,576) scale(4.12)"
   id="g256"><rect
     width="6"
     height="6"
     id="rect256" /></g>
<g
   transform="translate(576,576) scale(4.12)"
   id="g257"><rect
     width="6"
     height="6"
     id="rect257" /></g>
<g
   transform="translate(696,576) scale(4.12)"
   id="g258"><rect
     width="6"
     height="6"
     id="rect258" /></g>
<g
   transform="translate(744,576) scale(4.12)"
   id="g259"><rect
     width="6"
     height="6"
     id="rect259" /></g>
<g
   transform="translate(768,576) scale(4.12)"
   id="g260"><rect
     width="6"
     height="6"
     id="rect260" /></g>
<g
   transform="translate(792,576) scale(4.12)"
   id="g261"><rect
     width="6"
     height="6"
     id="rect261" /></g>
<g
   transform="translate(48,600) scale(4.12)"
   id="g262"><rect
     width="6"
     height="6"
     id="rect262" /></g>
<g
   transform="translate(96,600) scale(4.12)"
   id="g263"><rect
     width="6"
     height="6"
     id="rect263" /></g>
<g
   transform="translate(144,600) scale(4.12)"
   id="g264"><rect
     width="6"
     height="6"
     id="rect264" /></g>
<g
   transform="translate(168,600) scale(4.12)"
   id="g265"><rect
     width="6"
     height="6"
     id="rect265" /></g>
<g
   transform="translate(216,600) scale(4.12)"
   id="g266"><rect
     width="6"
     height="6"
     id="rect266" /></g>
<g
   transform="translate(264,600) scale(4.12)"
   id="g267"><rect
     width="6"
     height="6"
     id="rect267" /></g>
<g
   transform="translate(288,600) scale(4.12)"
   id="g268"><rect
     width="6"
     height="6"
     id="rect268" /></g>
<g
   transform="translate(312,600) scale(4.12)"
   id="g269"><rect
     width="6"
     height="6"
     id="rect269" /></g>
<g
   transform="translate(336,600) scale(4.12)"
   id="g270"><rect
     width="6"
     height="6"
     id="rect270" /></g>
<g
   transform="translate(360,600) scale(4.12)"
   id="g271"><rect
     width="6"
     height="6"
     id="rect271" /></g>
<g
   transform="translate(456,600) scale(4.12)"
   id="g272"><rect
     width="6"
     height="6"
     id="rect272" /></g>
<g
   transform="translate(480,600) scale(4.12)"
   id="g273"><rect
     width="6"
     height="6"
     id="rect273" /></g>
<g
   transform="translate(552,600) scale(4.12)"
   id="g274"><rect
     width="6"
     height="6"
     id="rect274" /></g>
<g
   transform="translate(576,600) scale(4.12)"
   id="g275"><rect
     width="6"
     height="6"
     id="rect275" /></g>
<g
   transform="translate(600,600) scale(4.12)"
   id="g276"><rect
     width="6"
     height="6"
     id="rect276" /></g>
<g
   transform="translate(696,600) scale(4.12)"
   id="g277"><rect
     width="6"
     height="6"
     id="rect277" /></g>
<g
   transform="translate(744,600) scale(4.12)"
   id="g278"><rect
     width="6"
     height="6"
     id="rect278" /></g>
<g
   transform="translate(768,600) scale(4.12)"
   id="g279"><rect
     width="6"
     height="6"
     id="rect279" /></g>
<g
   transform="translate(792,600) scale(4.12)"
   id="g280"><rect
     width="6"
     height="6"
     id="rect280" /></g>
<g
   transform="translate(816,600) scale(4.12)"
   id="g281"><rect
     width="6"
     height="6"
     id="rect281" /></g>
<g
   transform="translate(48,624) scale(4.12)"
   id="g282"><rect
     width="6"
     height="6"
     id="rect282" /></g>
<g
   transform="translate(192,624) scale(4.12)"
   id="g283"><rect
     width="6"
     height="6"
     id="rect283" /></g>
<g
   transform="translate(216,624) scale(4.12)"
   id="g284"><rect
     width="6"
     height="6"
     id="rect284" /></g>
<g
   transform="translate(264,624) scale(4.12)"
   id="g285"><rect
     width="6"
     height="6"
     id="rect285" /></g>
<g
   transform="translate(312,624) scale(4.12)"
   id="g286"><rect
     width="6"
     height="6"
     id="rect286" /></g>
<g
   transform="translate(456,624) scale(4.12)"
   id="g287"><rect
     width="6"
     height="6"
     id="rect287" /></g>
<g
   transform="translate(480,624) scale(4.12)"
   id="g288"><rect
     width="6"
     height="6"
     id="rect288" /></g>
<g
   transform="translate(504,624) scale(4.12)"
   id="g289"><rect
     width="6"
     height="6"
     id="rect289" /></g>
<g
   transform="translate(576,624) scale(4.12)"
   id="g290"><rect
     width="6"
     height="6"
     id="rect290" /></g>
<g
   transform="translate(600,624) scale(4.12)"
   id="g291"><rect
     width="6"
     height="6"
     id="rect291" /></g>
<g
   transform="translate(624,624) scale(4.12)"
   id="g292"><rect
     width="6"
     height="6"
     id="rect292" /></g>
<g
   transform="translate(648,624) scale(4.12)"
   id="g293"><rect
     width="6"
     height="6"
     id="rect293" /></g>
<g
   transform="translate(672,624) scale(4.12)"
   id="g294"><rect
     width="6"
     height="6"
     id="rect294" /></g>
<g
   transform="translate(696,624) scale(4.12)"
   id="g295"><rect
     width="6"
     height="6"
     id="rect295" /></g>
<g
   transform="translate(720,624) scale(4.12)"
   id="g296"><rect
     width="6"
     height="6"
     id="rect296" /></g>
<g
   transform="translate(744,624) scale(4.12)"
   id="g297"><rect
     width="6"
     height="6"
     id="rect297" /></g>
<g
   transform="translate(792,624) scale(4.12)"
   id="g298"><rect
     width="6"
     height="6"
     id="rect298" /></g>
<g
   transform="translate(816,624) scale(4.12)"
   id="g299"><rect
     width="6"
     height="6"
     id="rect299" /></g>
<g
   transform="translate(240,648) scale(4.12)"
   id="g300"><rect
     width="6"
     height="6"
     id="rect300" /></g>
<g
   transform="translate(336,648) scale(4.12)"
   id="g301"><rect
     width="6"
     height="6"
     id="rect301" /></g>
<g
   transform="translate(384,648) scale(4.12)"
   id="g302"><rect
     width="6"
     height="6"
     id="rect302" /></g>
<g
   transform="translate(480,648) scale(4.12)"
   id="g303"><rect
     width="6"
     height="6"
     id="rect303" /></g>
<g
   transform="translate(504,648) scale(4.12)"
   id="g304"><rect
     width="6"
     height="6"
     id="rect304" /></g>
<g
   transform="translate(576,648) scale(4.12)"
   id="g305"><rect
     width="6"
     height="6"
     id="rect305" /></g>
<g
   transform="translate(624,648) scale(4.12)"
   id="g306"><rect
     width="6"
     height="6"
     id="rect306" /></g>
<g
   transform="translate(720,648) scale(4.12)"
   id="g307"><rect
     width="6"
     height="6"
     id="rect307" /></g>
<g
   transform="translate(768,648) scale(4.12)"
   id="g308"><rect
     width="6"
     height="6"
     id="rect308" /></g>
<g
   transform="translate(792,648) scale(4.12)"
   id="g309"><rect
     width="6"
     height="6"
     id="rect309" /></g>
<g
   transform="translate(816,648) scale(4.12)"
   id="g310"><rect
     width="6"
     height="6"
     id="rect310" /></g>
<g
   transform="translate(264,672) scale(4.12)"
   id="g311"><rect
     width="6"
     height="6"
     id="rect311" /></g>
<g
   transform="translate(312,672) scale(4.12)"
   id="g312"><rect
     width="6"
     height="6"
     id="rect312" /></g>
<g
   transform="translate(336,672) scale(4.12)"
   id="g313"><rect
     width="6"
     height="6"
     id="rect313" /></g>
<g
   transform="translate(384,672) scale(4.12)"
   id="g314"><rect
     width="6"
     height="6"
     id="rect314" /></g>
<g
   transform="translate(408,672) scale(4.12)"
   id="g315"><rect
     width="6"
     height="6"
     id="rect315" /></g>
<g
   transform="translate(432,672) scale(4.12)"
   id="g316"><rect
     width="6"
     height="6"
     id="rect316" /></g>
<g
   transform="translate(456,672) scale(4.12)"
   id="g317"><rect
     width="6"
     height="6"
     id="rect317" /></g>
<g
   transform="translate(528,672) scale(4.12)"
   id="g318"><rect
     width="6"
     height="6"
     id="rect318" /></g>
<g
   transform="translate(576,672) scale(4.12)"
   id="g319"><rect
     width="6"
     height="6"
     id="rect319" /></g>
<g
   transform="translate(600,672) scale(4.12)"
   id="g320"><rect
     width="6"
     height="6"
     id="rect320" /></g>
<g
   transform="translate(624,672) scale(4.12)"
   id="g321"><rect
     width="6"
     height="6"
     id="rect321" /></g>
<g
   transform="translate(672,672) scale(4.12)"
   id="g322"><rect
     width="6"
     height="6"
     id="rect322" /></g>
<g
   transform="translate(720,672) scale(4.12)"
   id="g323"><rect
     width="6"
     height="6"
     id="rect323" /></g>
<g
   transform="translate(792,672) scale(4.12)"
   id="g324"><rect
     width="6"
     height="6"
     id="rect324" /></g>
<g
   transform="translate(264,696) scale(4.12)"
   id="g325"><rect
     width="6"
     height="6"
     id="rect325" /></g>
<g
   transform="translate(312,696) scale(4.12)"
   id="g326"><rect
     width="6"
     height="6"
     id="rect326" /></g>
<g
   transform="translate(384,696) scale(4.12)"
   id="g327"><rect
     width="6"
     height="6"
     id="rect327" /></g>
<g
   transform="translate(456,696) scale(4.12)"
   id="g328"><rect
     width="6"
     height="6"
     id="rect328" /></g>
<g
   transform="translate(480,696) scale(4.12)"
   id="g329"><rect
     width="6"
     height="6"
     id="rect329" /></g>
<g
   transform="translate(504,696) scale(4.12)"
   id="g330"><rect
     width="6"
     height="6"
     id="rect330" /></g>
<g
   transform="translate(528,696) scale(4.12)"
   id="g331"><rect
     width="6"
     height="6"
     id="rect331" /></g>
<g
   transform="translate(600,696) scale(4.12)"
   id="g332"><rect
     width="6"
     height="6"
     id="rect332" /></g>
<g
   transform="translate(624,696) scale(4.12)"
   id="g333"><rect
     width="6"
     height="6"
     id="rect333" /></g>
<g
   transform="translate(720,696) scale(4.12)"
   id="g334"><rect
     width="6"
     height="6"
     id="rect334" /></g>
<g
   transform="translate(744,696) scale(4.12)"
   id="g335"><rect
     width="6"
     height="6"
     id="rect335" /></g>
<g
   transform="translate(768,696) scale(4.12)"
   id="g336"><rect
     width="6"
     height="6"
     id="rect336" /></g>
<g
   transform="translate(792,696) scale(4.12)"
   id="g337"><rect
     width="6"
     height="6"
     id="rect337" /></g>
<g
   transform="translate(816,696) scale(4.12)"
   id="g338"><rect
     width="6"
     height="6"
     id="rect338" /></g>
<g
   transform="translate(240,720) scale(4.12)"
   id="g339"><rect
     width="6"
     height="6"
     id="rect339" /></g>
<g
   transform="translate(264,720) scale(4.12)"
   id="g340"><rect
     width="6"
     height="6"
     id="rect340" /></g>
<g
   transform="translate(336,720) scale(4.12)"
   id="g341"><rect
     width="6"
     height="6"
     id="rect341" /></g>
<g
   transform="translate(360,720) scale(4.12)"
   id="g342"><rect
     width="6"
     height="6"
     id="rect342" /></g>
<g
   transform="translate(384,720) scale(4.12)"
   id="g343"><rect
     width="6"
     height="6"
     id="rect343" /></g>
<g
   transform="translate(408,720) scale(4.12)"
   id="g344"><rect
     width="6"
     height="6"
     id="rect344" /></g>
<g
   transform="translate(432,720) scale(4.12)"
   id="g345"><rect
     width="6"
     height="6"
     id="rect345" /></g>
<g
   transform="translate(480,720) scale(4.12)"
   id="g346"><rect
     width="6"
     height="6"
     id="rect346" /></g>
<g
   transform="translate(504,720) scale(4.12)"
   id="g347"><rect
     width="6"
     height="6"
     id="rect347" /></g>
<g
   transform="translate(528,720) scale(4.12)"
   id="g348"><rect
     width="6"
     height="6"
     id="rect348" /></g>
<g
   transform="translate(552,720) scale(4.12)"
   id="g349"><rect
     width="6"
     height="6"
     id="rect349" /></g>
<g
   transform="translate(576,720) scale(4.12)"
   id="g350"><rect
     width="6"
     height="6"
     id="rect350" /></g>
<g
   transform="translate(624,720) scale(4.12)"
   id="g351"><rect
     width="6"
     height="6"
     id="rect351" /></g>
<g
   transform="translate(648,720) scale(4.12)"
   id="g352"><rect
     width="6"
     height="6"
     id="rect352" /></g>
<g
   transform="translate(672,720) scale(4.12)"
   id="g353"><rect
     width="6"
     height="6"
     id="rect353" /></g>
<g
   transform="translate(696,720) scale(4.12)"
   id="g354"><rect
     width="6"
     height="6"
     id="rect354" /></g>
<g
   transform="translate(720,720) scale(4.12)"
   id="g355"><rect
     width="6"
     height="6"
     id="rect355" /></g>
<g
   transform="translate(792,720) scale(4.12)"
   id="g356"><rect
     width="6"
     height="6"
     id="rect356" /></g>
<g
   transform="translate(816,720) scale(4.12)"
   id="g357"><rect
     width="6"
     height="6"
     id="rect357" /></g>
<g
   transform="translate(240,744) scale(4.12)"
   id="g358"><rect
     width="6"
     height="6"
     id="rect358" /></g>
<g
   transform="translate(312,744) scale(4.12)"
   id="g359"><rect
     width="6"
     height="6"
     id="rect359" /></g>
<g
   transform="translate(336,744) scale(4.12)"
   id="g360"><rect
     width="6"
     height="6"
     id="rect360" /></g>
<g
   transform="translate(360,744) scale(4.12)"
   id="g361"><rect
     width="6"
     height="6"
     id="rect361" /></g>
<g
   transform="translate(408,744) scale(4.12)"
   id="g362"><rect
     width="6"
     height="6"
     id="rect362" /></g>
<g
   transform="translate(528,744) scale(4.12)"
   id="g363"><rect
     width="6"
     height="6"
     id="rect363" /></g>
<g
   transform="translate(600,744) scale(4.12)"
   id="g364"><rect
     width="6"
     height="6"
     id="rect364" /></g>
<g
   transform="translate(624,744) scale(4.12)"
   id="g365"><rect
     width="6"
     height="6"
     id="rect365" /></g>
<g
   transform="translate(648,744) scale(4.12)"
   id="g366"><rect
     width="6"
     height="6"
     id="rect366" /></g>
<g
   transform="translate(720,744) scale(4.12)"
   id="g367"><rect
     width="6"
     height="6"
     id="rect367" /></g>
<g
   transform="translate(768,744) scale(4.12)"
   id="g368"><rect
     width="6"
     height="6"
     id="rect368" /></g>
<g
   transform="translate(792,744) scale(4.12)"
   id="g369"><rect
     width="6"
     height="6"
     id="rect369" /></g>
<g
   transform="translate(240,768) scale(4.12)"
   id="g370"><rect
     width="6"
     height="6"
     id="rect370" /></g>
<g
   transform="translate(288,768) scale(4.12)"
   id="g371"><rect
     width="6"
     height="6"
     id="rect371" /></g>
<g
   transform="translate(384,768) scale(4.12)"
   id="g372"><rect
     width="6"
     height="6"
     id="rect372" /></g>
<g
   transform="translate(432,768) scale(4.12)"
   id="g373"><rect
     width="6"
     height="6"
     id="rect373" /></g>
<g
   transform="translate(456,768) scale(4.12)"
   id="g374"><rect
     width="6"
     height="6"
     id="rect374" /></g>
<g
   transform="translate(480,768) scale(4.12)"
   id="g375"><rect
     width="6"
     height="6"
     id="rect375" /></g>
<g
   transform="translate(504,768) scale(4.12)"
   id="g376"><rect
     width="6"
     height="6"
     id="rect376" /></g>
<g
   transform="translate(528,768) scale(4.12)"
   id="g377"><rect
     width="6"
     height="6"
     id="rect377" /></g>
<g
   transform="translate(552,768) scale(4.12)"
   id="g378"><rect
     width="6"
     height="6"
     id="rect378" /></g>
<g
   transform="translate(600,768) scale(4.12)"
   id="g379"><rect
     width="6"
     height="6"
     id="rect379" /></g>
<g
   transform="translate(624,768) scale(4.12)"
   id="g380"><rect
     width="6"
     height="6"
     id="rect380" /></g>
<g
   transform="translate(648,768) scale(4.12)"
   id="g381"><rect
     width="6"
     height="6"
     id="rect381" /></g>
<g
   transform="translate(672,768) scale(4.12)"
   id="g382"><rect
     width="6"
     height="6"
     id="rect382" /></g>
<g
   transform="translate(744,768) scale(4.12)"
   id="g383"><rect
     width="6"
     height="6"
     id="rect383" /></g>
<g
   transform="translate(264,792) scale(4.12)"
   id="g384"><rect
     width="6"
     height="6"
     id="rect384" /></g>
<g
   transform="translate(360,792) scale(4.12)"
   id="g385"><rect
     width="6"
     height="6"
     id="rect385" /></g>
<g
   transform="translate(384,792) scale(4.12)"
   id="g386"><rect
     width="6"
     height="6"
     id="rect386" /></g>
<g
   transform="translate(408,792) scale(4.12)"
   id="g387"><rect
     width="6"
     height="6"
     id="rect387" /></g>
<g
   transform="translate(432,792) scale(4.12)"
   id="g388"><rect
     width="6"
     height="6"
     id="rect388" /></g>
<g
   transform="translate(456,792) scale(4.12)"
   id="g389"><rect
     width="6"
     height="6"
     id="rect389" /></g>
<g
   transform="translate(480,792) scale(4.12)"
   id="g390"><rect
     width="6"
     height="6"
     id="rect390" /></g>
<g
   transform="translate(528,792) scale(4.12)"
   id="g391"><rect
     width="6"
     height="6"
     id="rect391" /></g>
<g
   transform="translate(576,792) scale(4.12)"
   id="g392"><rect
     width="6"
     height="6"
     id="rect392" /></g>
<g
   transform="translate(648,792) scale(4.12)"
   id="g393"><rect
     width="6"
     height="6"
     id="rect393" /></g>
<g
   transform="translate(672,792) scale(4.12)"
   id="g394"><rect
     width="6"
     height="6"
     id="rect394" /></g>
<g
   transform="translate(696,792) scale(4.12)"
   id="g395"><rect
     width="6"
     height="6"
     id="rect395" /></g>
<g
   transform="translate(744,792) scale(4.12)"
   id="g396"><rect
     width="6"
     height="6"
     id="rect396" /></g>
<g
   transform="translate(768,792) scale(4.12)"
   id="g397"><rect
     width="6"
     height="6"
     id="rect397" /></g>
<g
   transform="translate(288,816) scale(4.12)"
   id="g398"><rect
     width="6"
     height="6"
     id="rect398" /></g>
<g
   transform="translate(312,816) scale(4.12)"
   id="g399"><rect
     width="6"
     height="6"
     id="rect399" /></g>
<g
   transform="translate(336,816) scale(4.12)"
   id="g400"><rect
     width="6"
     height="6"
     id="rect400" /></g>
<g
   transform="translate(384,816) scale(4.12)"
   id="g401"><rect
     width="6"
     height="6"
     id="rect401" /></g>
<g
   transform="translate(456,816) scale(4.12)"
   id="g402"><rect
     width="6"
     height="6"
     id="rect402" /></g>
<g
   transform="translate(504,816) scale(4.12)"
   id="g403"><rect
     width="6"
     height="6"
     id="rect403" /></g>
<g
   transform="translate(528,816) scale(4.12)"
   id="g404"><rect
     width="6"
     height="6"
     id="rect404" /></g>
<g
   transform="translate(600,816) scale(4.12)"
   id="g405"><rect
     width="6"
     height="6"
     id="rect405" /></g>
<g
   transform="translate(624,816) scale(4.12)"
   id="g406"><rect
     width="6"
     height="6"
     id="rect406" /></g>
<g
   transform="translate(672,816) scale(4.12)"
   id="g407"><rect
     width="6"
     height="6"
     id="rect407" /></g>
<g
   transform="translate(768,816) scale(4.12)"
   id="g408"><rect
     width="6"
     height="6"
     id="rect408" /></g>
<g
   transform="translate(792,816) scale(4.12)"
   id="g409"><rect
     width="6"
     height="6"
     id="rect409" /></g>
<g
   transform="translate(48,48)"
   id="g411"><g
     transform="scale(12)"
     id="g410"><path
       d="M0,0v14h14V0H0z M12,12H2V2h10V12z"
       id="path409" /></g></g>
<g
   transform="translate(672,48)"
   id="g413"><g
     transform="scale(12)"
     id="g412"><path
       d="M0,0v14h14V0H0z M12,12H2V2h10V12z"
       id="path411" /></g></g>
<g
   transform="translate(48,672)"
   id="g415"><g
     transform="scale(12)"
     id="g414"><path
       d="M0,0v14h14V0H0z M12,12H2V2h10V12z"
       id="path413" /></g></g>
<g
   transform="translate(96,96)"
   id="g417"><g
     transform="scale(12)"
     id="g416"><rect
       width="6"
       height="6"
       id="rect415" /></g></g>
<g
   transform="translate(720,96)"
   id="g419"><g
     transform="scale(12)"
     id="g418"><rect
       width="6"
       height="6"
       id="rect417" /></g></g>
<g
   transform="translate(96,720)"
   id="g421"><g
     transform="scale(12)"
     id="g420"><rect
       width="6"
       height="6"
       id="rect419" /></g></g>
</g><g
     id="g423"
     transform="matrix(0.98565785,0,0,0.98565785,-13.771757,20.314534)"><text
       xml:space="preserve"
       style="font-style:normal;font-variant:normal;font-weight:bold;font-stretch:normal;font-size:40.1061px;line-height:1.25;font-family:Verdana;-inkscape-font-specification:'Verdana, Bold';font-variant-ligatures:none;font-variant-caps:normal;font-variant-numeric:normal;font-variant-east-asian:normal;text-align:center;text-anchor:middle;display:inline;stroke-width:0.0589519"
       x="465.80563"
       y="507.69159"
       id="text51"><tspan
         sodipodi:role="line"
         id="tspan51"
         style="font-style:normal;font-variant:normal;font-weight:bold;font-stretch:normal;font-size:40.1061px;font-family:Verdana;-inkscape-font-specification:'Verdana, Bold';font-variant-ligatures:none;font-variant-caps:normal;font-variant-numeric:normal;font-variant-east-asian:normal;stroke-width:0.0589519"
         x="465.80563"
         y="507.69159">pyCFS</tspan></text><path
       inkscape:connector-curvature="0"
       style="display:inline;fill:url(#linearGradient1475);fill-opacity:1;stroke-width:1.00887"
       d="m 545.03286,385.03202 v 12.01183 c 0,9.31264 -7.8953,17.15078 -16.89856,17.15078 h -27.01878 c -7.40089,0 -13.52515,6.33418 -13.52515,13.74587 v 25.75767 c 0,7.33077 6.37463,11.64269 13.52515,13.74584 8.56261,2.51777 16.7737,2.97279 27.01878,0 6.81002,-1.9717 13.52516,-5.93979 13.52516,-13.74584 v -10.30938 h -27.01879 v -3.43646 h 27.01879 13.52515 c 7.86158,0 10.79112,-5.4836 13.52515,-13.71432 2.82416,-8.47336 2.70399,-16.6219 0,-27.49167 -1.94286,-7.82623 -5.65358,-13.71432 -13.52515,-13.71432 z m -15.19609,65.22973 c 2.80413,0 5.07587,2.29757 5.07587,5.13891 0,2.85139 -2.27174,5.17047 -5.07587,5.17047 -2.79412,0 -5.07588,-2.31908 -5.07588,-5.17047 0,-2.84134 2.28176,-5.13891 5.07588,-5.13891 z"
       id="path1950" /><path
       inkscape:connector-curvature="0"
       style="display:inline;fill:url(#linearGradient1478);fill-opacity:1;stroke-width:1.00887"
       d="m 514.04166,356.12158 c -4.62431,0.0227 -9.04042,0.4159 -12.92614,1.10347 -11.44685,2.02227 -13.52515,6.25508 -13.52515,14.06113 v 10.30938 h 27.0503 v 3.43646 h -27.0503 -10.15175 c -7.86157,0 -14.74539,4.72524 -16.89856,13.71432 -2.48366,10.30355 -2.59382,16.7331 0,27.49167 1.92283,8.00826 6.51482,13.71432 14.37639,13.71432 h 9.30051 v -12.35864 c 0,-8.92841 7.72506,-16.804 16.89856,-16.804 h 27.01878 c 7.52107,0 13.52516,-6.19257 13.52516,-13.74584 v -25.75767 c 0,-7.33081 -6.18435,-12.83762 -13.52516,-14.06113 -4.64684,-0.77352 -9.46834,-1.12494 -14.09264,-1.10347 z m -14.62861,8.29168 c 2.79412,0 5.07588,2.319 5.07588,5.17047 -10e-6,2.84126 -2.28176,5.13891 -5.07588,5.13891 -2.80412,0 -5.07587,-2.29765 -5.07587,-5.13891 0,-2.85147 2.27175,-5.17047 5.07587,-5.17047 z"
       id="path1948" /><path
       inkscape:connector-curvature="0"
       style="display:inline;fill:url(#linearGradient1180);fill-opacity:1;fill-rule:nonzero;stroke:none;stroke-width:6.3908;stroke-miterlimit:4;stroke-dasharray:none;stroke-dashoffset:0;stroke-opacity:1"
       d="m 464.82604,343 c 1.11297,-0.002 3.09923,0.74347 4.366,1.85488 1.38772,1.21765 2.49951,3.10677 2.79517,4.75038 0.43922,2.44153 1.72174,3.63416 12.20633,11.35083 10.47448,7.70917 12.06518,8.87421 12.95942,9.3561 1.1656,-0.86347 3.26422,-1.60478 4.3891,-1.31036 1.1249,0.2948 2.71395,0.63829 3.89012,2.91961 1.0144,2.82263 0.86392,4.11247 0.8547,4.57206 -0.007,0.31143 2.76505,2.33106 14.9276,10.57995 7.33372,4.9739 13.62732,9.15742 13.98506,9.29832 0.35773,0.14098 4.98774,-3.73292 10.28903,-8.60938 8.99299,-8.27233 10.79481,-9.43129 10.74173,-9.58746 -1.44688,-4.25756 -0.35614,-6.10257 0.38351,-7.27978 0.73965,-1.17714 2.54058,-2.66385 4.00104,-3.30017 2.06118,-0.89809 3.2086,-0.9642 5.12831,-0.30312 1.36023,0.46783 3.2154,1.67784 4.12577,2.68838 0.91038,1.01053 1.848,3.07676 2.08367,4.59129 0.27628,1.77517 -0.007,3.63073 -0.79931,5.22735 -0.67557,1.36233 -2.27474,3.04207 -3.5575,3.73384 -1.32138,0.71213 -4.93155,0.96631 -7.29517,-0.0695 -1.73855,1.72528 -1.39859,1.32106 -10.33982,9.39961 -5.59235,5.05282 -8.08595,7.37163 -9.49435,8.92747 0.27779,0.48862 5.70739,8.05486 11.45791,16.14444 5.7505,8.08963 11.30777,15.28812 12.34957,15.99999 1.3015,0.88921 1.89424,2.01336 1.89424,3.58919 0,1.2615 -0.53774,2.84924 -1.19197,3.53152 -0.65426,0.68266 -2.14437,1.24297 -3.31262,1.24297 -1.16829,0 -2.46199,-0.44523 -2.87836,-0.98763 -0.41631,-0.54262 -1.00503,-1.82506 -1.30745,-2.8521 -0.30244,-1.02709 -4.99042,-8.13226 -10.41838,-15.78804 -5.42794,-7.65585 -10.89492,-15.5354 -11.43482,-16.14451 -1.21562,0.7514 -2.32927,1.85941 -12.61289,11.70731 -10.10591,9.67767 -11.70637,11.30415 -12.38188,12.07816 1.23168,2.65561 1.29182,4.03722 1.53389,5.42018 0.24211,1.38286 0.0521,3.6878 -0.42505,5.11646 l -0.86861,2.59684 7.40143,7.27975 c 4.58191,4.50799 8.03225,7.29415 9.06466,7.31822 0.91714,0.0151 2.50139,0.43306 3.51589,0.91544 1.01451,0.4817 2.22204,1.74599 2.68429,2.80388 0.46226,1.05793 0.84087,2.64065 0.84087,3.52184 0,0.8812 -0.99605,2.64303 -2.21303,3.91212 -1.33403,1.39094 -3.01173,2.30766 -4.22277,2.30766 -1.21103,0 -2.88889,-0.91672 -4.22279,-2.30766 -1.21694,-1.26909 -2.21304,-3.14336 -2.21304,-4.16739 0,-1.34332 -2.10128,-3.9016 -7.54923,-9.17794 -6.52081,-6.31544 -6.97098,-6.68681 -7.52156,-7.04848 -0.81505,0.45479 -4.52973,1.38743 -6.40347,1.38743 -1.87375,0 -4.3211,-0.3617 -5.43788,-0.80424 -1.11677,-0.44263 -2.92347,-1.80405 -4.0195,-3.02563 l -1.99588,-2.22096 -8.70429,2.49078 c -4.78777,1.37076 -12.1941,3.48767 -16.46146,4.70219 -5.48198,1.56019 -7.76178,2.55889 -7.76178,3.40142 0,0.65563 -0.6854,2.35147 -1.52464,3.76751 -0.83922,1.41596 -2.75891,3.18157 -4.26435,3.92655 -1.76947,0.87557 -3.66401,1.19826 -5.36396,0.91056 -1.44631,-0.24491 -3.44432,-0.99957 -4.4353,-1.67663 -0.99098,-0.67737 -2.39384,-2.17565 -3.11858,-3.32912 -0.72478,-1.1534 -1.34271,-3.64373 -1.37679,-5.53573 -0.0609,-3.39473 -0.15096,-3.50528 -6.71765,-8.49373 l -6.65296,-5.05395 -3.14167,1.71999 c -2.34875,1.28769 -4.46137,1.72479 -8.36702,1.72479 h -5.22534 l -5.56262,8.67685 c -4.47781,6.98551 -5.56261,9.26154 -5.56261,11.6784 0,2.13498 -0.536,3.56047 -1.85729,4.93833 -1.14407,1.19305 -2.72765,1.93671 -4.12114,1.93671 -1.28964,0 -3.15879,-0.80255 -4.34752,-1.86928 -1.58856,-1.42488 -2.08829,-2.57741 -2.08829,-4.83716 0,-2.25966 0.49974,-3.41695 2.08829,-4.84183 1.14731,-1.02909 2.66272,-1.87915 3.36806,-1.88863 0.79034,-0.008 3.51374,-3.54562 7.10111,-9.21646 l 5.82135,-9.20201 -1.39067,-2.03796 c -0.7647,-1.11999 -1.78224,-3.55968 -2.26385,-5.42487 -0.48165,-1.86524 -0.77313,-4.14584 -0.64678,-5.06347 0.20175,-1.46612 -1.2736,-2.32177 -12.16937,-7.06776 -9.44549,-4.11432 -12.64529,-5.19167 -13.4168,-4.52394 -0.55713,0.48261 -2.21446,0.91052 -3.68223,0.95388 -1.60258,0.0438 -3.49768,-0.56784 -4.74948,-1.53687 -1.14646,-0.88729 -2.37464,-2.81957 -2.72587,-4.29748 -0.39225,-1.65037 -0.33059,-3.50993 0.15716,-4.81787 0.4367,-1.17109 1.70356,-2.74889 2.81364,-3.50729 1.11006,-0.75825 3.24107,-1.34514 4.74024,-1.30077 2.03719,0.0605 3.25673,0.69997 4.82801,2.53414 1.15632,1.34948 2.10216,2.93817 2.10216,3.53148 0,0.64259 4.78148,3.19181 11.83672,6.30648 6.50825,2.87305 12.2467,5.22244 12.75151,5.22244 0.50478,0 1.56317,-0.76177 2.35625,-1.691 0.79313,-0.92961 2.80696,-2.3438 4.47227,-3.1412 1.66531,-0.79741 4.39166,-1.44046 6.05696,-1.43097 1.66531,0.008 4.38704,0.52437 6.05235,1.14675 l 3.0308,1.13215 8.501,-8.85993 c 8.42263,-8.77859 7.12472,-7.5716 8.88448,-9.20693 l -1.32598,-5.68021 -15.06619,-7.86263 c -14.20231,-7.41211 -15.16039,-7.79406 -16.71556,-6.65824 -0.90729,0.66259 -2.96602,1.2045 -4.57853,1.2045 -1.61251,0 -3.90286,-0.59566 -5.08676,-1.32495 -1.18388,-0.72957 -2.7341,-2.45537 -3.44659,-3.83498 -0.9277,-1.79633 -1.16939,-3.49122 -0.85009,-5.97399 0.32342,-2.51551 1.08094,-4.0596 2.75821,-5.62251 1.27148,-1.18473 3.23069,-2.39478 4.35214,-2.6883 1.16506,-0.30501 3.3266,-0.0522 5.04516,0.57819 1.65424,0.6096 3.66886,2.0411 4.47689,3.1798 0.80809,1.13869 1.69466,3.22624 1.97279,4.64436 0.47608,2.42728 1.37246,3.04539 15.28333,10.53176 l 15.93475,8.98526 2.3193,-1.89823 c 1.50358,-0.74441 1.88964,-1.03978 3.89938,-0.94919 0.33993,0.0151 2.23044,-4.47405 5.90911,-12.5311 2.92376,-6.40358 5.71058,-12.86755 5.69199,-13.51884 -0.9268,-1.8274 -0.85514,-1.67047 -1.06725,-3.36276 -0.26718,-1.40541 -0.13202,-3.14498 0.13406,-4.24932 0.26585,-1.10438 1.58263,-2.70724 2.92453,-3.56032 1.34189,-0.85307 3.30849,-1.39075 4.42144,-1.39237 z m 4.52771,14.22713 c -2.38569,1.52719 -3.949,1.10294 -4.64784,1.27181 -0.14997,0.0378 -1.26922,2.90434 -5.6735,12.80092 -4.36509,9.8087 -5.26041,12.45517 -4.597,13.56695 0.45331,0.76003 0.99835,1.37492 1.21047,1.36358 0.21218,-0.008 8.325,-2.10894 18.03229,-4.65891 9.7073,-2.54993 17.8649,-4.85526 18.12468,-5.12613 -0.0705,-0.47127 -0.0748,-0.48084 0.042,-1.18035 -0.59974,-0.61304 -16.66673,-13.62369 -22.4907,-18.03787 z m 26.18678,26.43042 c -0.5433,-0.21732 -9.58603,1.83122 -20.09285,4.55286 -10.50684,2.72168 -19.30009,5.15221 -19.54308,5.40559 -0.24295,0.25248 0.67149,1.45259 2.03285,2.66434 1.36132,1.21172 9.64867,8.45148 18.41577,16.08666 15.24567,13.27725 16.03004,13.84384 18.05539,13.04659 l 2.12064,-0.83301 v -20.26371 c 0,-15.94024 -0.21139,-20.34792 -0.98872,-20.65886 z m 8.36703,0.24038 c -0.31226,-0.008 -0.56826,9.19053 -0.56826,20.44203 0,15.6587 0.22295,20.53391 0.94712,20.79371 0.52044,0.18709 2.00373,-0.58261 3.29875,-1.71031 1.29499,-1.12736 6.99317,-6.47833 12.65909,-11.89519 l 10.29824,-9.84764 -13.03333,-8.88412 c -7.16913,-4.88598 -13.28938,-8.8905 -13.60161,-8.89848 z m -53.30222,16.3228 c -0.80897,0.32315 -1.01181,4.60834 -1.01181,21.38147 v 20.97188 l 2.45328,2.12953 c 1.34701,1.17268 2.79322,2.00588 3.2156,1.85005 0.42235,-0.15534 7.54864,-2.22705 15.83774,-4.60581 8.28912,-2.37884 15.95437,-4.59096 16.00407,-5.06351 0.15069,-1.43312 0.63043,-3.95936 1.56622,-4.81308 -1.57827,-1.2181 -1.81927,-1.42318 -18.95171,-16.41422 -10.29975,-9.0124 -18.53782,-15.66667 -19.11339,-15.43631 z m -7.9004,0.2366 c -0.27265,0 -4.43408,3.92001 -9.24484,8.71052 l -8.74587,8.71064 1.17351,2.92925 c 0.82296,2.05391 1.06303,4.41982 0.7947,7.90602 l -0.38351,4.97688 6.53746,5.05387 c 4.68787,3.62355 6.96757,4.92835 8.05285,4.60097 0.8327,-0.25134 1.56269,-0.50434 1.62166,-0.55914 0.0591,-0.0522 0.23735,-9.59955 0.39732,-21.21287 0.15991,-11.61328 0.0695,-21.11641 -0.20334,-21.11641 z"
       id="rect1211"
       sodipodi:nodetypes="sssscsccssscssssccscscsssssssscscsccccssscsssscssccccscscccccccsccscscsccccccccsccscsccscscscccccccssssssscssccccscccsssscsscsccsscscssccsccscsccccsscccsscsssccccccsscss" /><path
       inkscape:connector-curvature="0"
       style="display:inline;fill:url(#linearGradient1);fill-opacity:1;stroke-width:0.26693"
       d="m -14.634339,193.73093 v 3.17813 c 0,2.46397 -2.088966,4.53781 -4.471078,4.53781 h -7.148719 c -1.958153,0 -3.57853,1.67592 -3.57853,3.63693 v 6.81505 c 0,1.9396 1.686621,3.08046 3.57853,3.63692 2.265523,0.66616 4.438042,0.78655 7.148719,0 1.801819,-0.52168 3.578531,-1.57157 3.578531,-3.63692 v -2.72769 h -7.14872 v -0.90923 h 7.14872 3.578531 c 2.080042,0 2.855151,-1.45087 3.578528,-3.62858 0.747225,-2.24191 0.715431,-4.39788 0,-7.27384 -0.514048,-2.07069 -1.495841,-3.62858 -3.578528,-3.62858 z m -4.020633,17.2587 c 0.741926,0 1.342992,0.6079 1.342992,1.35967 -1e-6,0.75443 -0.601066,1.36802 -1.342992,1.36802 -0.739276,0 -1.342992,-0.61359 -1.342992,-1.36802 0,-0.75177 0.603715,-1.35967 1.342992,-1.35967 z"
       id="path1950-6"
       clip-path="url(#clipPath51)"
       inkscape:path-effect="#path-effect51"
       inkscape:original-d="m -14.634339,193.73093 v 3.17813 c 0,2.46397 -2.088966,4.53781 -4.471078,4.53781 h -7.148719 c -1.958153,0 -3.57853,1.67592 -3.57853,3.63693 v 6.81505 c 0,1.9396 1.686621,3.08046 3.57853,3.63692 2.265523,0.66616 4.438042,0.78655 7.148719,0 1.801819,-0.52168 3.578531,-1.57157 3.578531,-3.63692 v -2.72769 h -7.14872 v -0.90923 h 7.14872 3.578531 c 2.080042,0 2.855151,-1.45087 3.578528,-3.62858 0.747225,-2.24191 0.715431,-4.39788 0,-7.27384 -0.514048,-2.07069 -1.495841,-3.62858 -3.578528,-3.62858 z m -4.020633,17.2587 c 0.741926,0 1.342992,0.6079 1.342992,1.35967 -1e-6,0.75443 -0.601066,1.36802 -1.342992,1.36802 -0.739276,0 -1.342992,-0.61359 -1.342992,-1.36802 0,-0.75177 0.603715,-1.35967 1.342992,-1.35967 z"
       transform="matrix(3.7795276,0,0,3.7795276,600.34375,-347.17938)" /><path
       inkscape:connector-curvature="0"
       style="display:inline;fill:url(#linearGradient2);fill-opacity:1;stroke-width:0.26693"
       d="m -22.834095,186.08171 c -1.223514,0.006 -2.391943,0.11004 -3.420041,0.29196 -3.028645,0.53506 -3.57853,1.65499 -3.57853,3.72034 v 2.72769 h 7.15706 v 0.90923 h -7.15706 -2.685983 c -2.080041,0 -3.901384,1.25022 -4.471078,3.62858 -0.657133,2.72615 -0.68628,4.4273 0,7.27384 0.50875,2.11885 1.723713,3.62858 3.803753,3.62858 h 2.460761 v -3.26989 c 0,-2.36231 2.043921,-4.44606 4.471077,-4.44606 h 7.148719 c 1.98995,0 3.578531,-1.63845 3.578531,-3.63692 v -6.81505 c 0,-1.93961 -1.636276,-3.39662 -3.578531,-3.72034 -1.229476,-0.20466 -2.505164,-0.29764 -3.728678,-0.29196 z m -3.870485,2.19384 c 0.739276,0 1.342992,0.61357 1.342992,1.36802 -10e-7,0.75175 -0.603716,1.35967 -1.342992,1.35967 -0.741925,0 -1.342991,-0.60792 -1.342991,-1.35967 0,-0.75445 0.601066,-1.36802 1.342991,-1.36802 z"
       id="path1948-6-8"
       clip-path="url(#clipPath49)"
       inkscape:path-effect="#path-effect50"
       inkscape:original-d="m -22.834095,186.08171 c -1.223514,0.006 -2.391943,0.11004 -3.420041,0.29196 -3.028645,0.53506 -3.57853,1.65499 -3.57853,3.72034 v 2.72769 h 7.15706 v 0.90923 h -7.15706 -2.685983 c -2.080041,0 -3.901384,1.25022 -4.471078,3.62858 -0.657133,2.72615 -0.68628,4.4273 0,7.27384 0.50875,2.11885 1.723713,3.62858 3.803753,3.62858 h 2.460761 v -3.26989 c 0,-2.36231 2.043921,-4.44606 4.471077,-4.44606 h 7.148719 c 1.98995,0 3.578531,-1.63845 3.578531,-3.63692 v -6.81505 c 0,-1.93961 -1.636276,-3.39662 -3.578531,-3.72034 -1.229476,-0.20466 -2.505164,-0.29764 -3.728678,-0.29196 z m -3.870485,2.19384 c 0.739276,0 1.342992,0.61357 1.342992,1.36802 -10e-7,0.75175 -0.603716,1.35967 -1.342992,1.35967 -0.741925,0 -1.342991,-0.60792 -1.342991,-1.35967 0,-0.75445 0.601066,-1.36802 1.342991,-1.36802 z"
       transform="matrix(3.7795276,0,0,3.7795276,600.34375,-347.17938)" /></g></svg>
